module gitlab.com/mheck136/maven-property-helper

go 1.14

require (
	github.com/fsnotify/fsnotify v1.4.9 // indirect
	github.com/mitchellh/mapstructure v1.2.2 // indirect
	github.com/pelletier/go-toml v1.7.0 // indirect
	github.com/spf13/afero v1.2.2 // indirect
	github.com/spf13/cast v1.3.1 // indirect
	github.com/spf13/cobra v1.0.0
	github.com/spf13/jwalterweatherman v1.1.0 // indirect
	github.com/spf13/pflag v1.0.5 // indirect
	golang.org/x/sys v0.0.0-20200413165638-669c56c373c4 // indirect
	golang.org/x/text v0.3.2 // indirect
	gopkg.in/ini.v1 v1.55.0 // indirect
	gopkg.in/yaml.v2 v2.2.8
)
